%YAML 1.1
%TAG !u! tag:unity3d.com,2011:
--- !u!1001 &9079960605941697860
PrefabInstance:
  m_ObjectHideFlags: 0
  serializedVersion: 2
  m_Modification:
    m_TransformParent: {fileID: 0}
    m_Modifications:
    - target: {fileID: 6572499481344009044, guid: 031db1bd1325ece439744f33bc9e593c,
        type: 3}
      propertyPath: m_Name
      value: Players_UI_Red_BottomRightCorner
      objectReference: {fileID: 0}
    - target: {fileID: 1324394097021378051, guid: 031db1bd1325ece439744f33bc9e593c,
        type: 3}
      propertyPath: m_LocalPosition.x
      value: 0
      objectReference: {fileID: 0}
    - target: {fileID: 1324394097021378051, guid: 031db1bd1325ece439744f33bc9e593c,
        type: 3}
      propertyPath: m_LocalPosition.y
      value: 0
      objectReference: {fileID: 0}
    - target: {fileID: 1324394097021378051, guid: 031db1bd1325ece439744f33bc9e593c,
        type: 3}
      propertyPath: m_LocalPosition.z
      value: 0
      objectReference: {fileID: 0}
    - target: {fileID: 1324394097021378051, guid: 031db1bd1325ece439744f33bc9e593c,
        type: 3}
      propertyPath: m_LocalRotation.x
      value: 0
      objectReference: {fileID: 0}
    - target: {fileID: 1324394097021378051, guid: 031db1bd1325ece439744f33bc9e593c,
        type: 3}
      propertyPath: m_LocalRotation.y
      value: 0
      objectReference: {fileID: 0}
    - target: {fileID: 1324394097021378051, guid: 031db1bd1325ece439744f33bc9e593c,
        type: 3}
      propertyPath: m_LocalRotation.z
      value: 0
      objectReference: {fileID: 0}
    - target: {fileID: 1324394097021378051, guid: 031db1bd1325ece439744f33bc9e593c,
        type: 3}
      propertyPath: m_LocalRotation.w
      value: 1
      objectReference: {fileID: 0}
    - target: {fileID: 1324394097021378051, guid: 031db1bd1325ece439744f33bc9e593c,
        type: 3}
      propertyPath: m_RootOrder
      value: 0
      objectReference: {fileID: 0}
    - target: {fileID: 1324394097021378051, guid: 031db1bd1325ece439744f33bc9e593c,
        type: 3}
      propertyPath: m_LocalEulerAnglesHint.x
      value: 0
      objectReference: {fileID: 0}
    - target: {fileID: 1324394097021378051, guid: 031db1bd1325ece439744f33bc9e593c,
        type: 3}
      propertyPath: m_LocalEulerAnglesHint.y
      value: 0
      objectReference: {fileID: 0}
    - target: {fileID: 1324394097021378051, guid: 031db1bd1325ece439744f33bc9e593c,
        type: 3}
      propertyPath: m_LocalEulerAnglesHint.z
      value: 0
      objectReference: {fileID: 0}
    - target: {fileID: 1324394097021378051, guid: 031db1bd1325ece439744f33bc9e593c,
        type: 3}
      propertyPath: m_AnchoredPosition.x
      value: 0
      objectReference: {fileID: 0}
    - target: {fileID: 1324394097021378051, guid: 031db1bd1325ece439744f33bc9e593c,
        type: 3}
      propertyPath: m_AnchoredPosition.y
      value: 0
      objectReference: {fileID: 0}
    - target: {fileID: 1324394097021378051, guid: 031db1bd1325ece439744f33bc9e593c,
        type: 3}
      propertyPath: m_SizeDelta.x
      value: 100
      objectReference: {fileID: 0}
    - target: {fileID: 1324394097021378051, guid: 031db1bd1325ece439744f33bc9e593c,
        type: 3}
      propertyPath: m_SizeDelta.y
      value: 100
      objectReference: {fileID: 0}
    - target: {fileID: 1324394097021378051, guid: 031db1bd1325ece439744f33bc9e593c,
        type: 3}
      propertyPath: m_AnchorMin.x
      value: 0.5
      objectReference: {fileID: 0}
    - target: {fileID: 1324394097021378051, guid: 031db1bd1325ece439744f33bc9e593c,
        type: 3}
      propertyPath: m_AnchorMin.y
      value: 0.5
      objectReference: {fileID: 0}
    - target: {fileID: 1324394097021378051, guid: 031db1bd1325ece439744f33bc9e593c,
        type: 3}
      propertyPath: m_AnchorMax.x
      value: 0.5
      objectReference: {fileID: 0}
    - target: {fileID: 1324394097021378051, guid: 031db1bd1325ece439744f33bc9e593c,
        type: 3}
      propertyPath: m_AnchorMax.y
      value: 0.5
      objectReference: {fileID: 0}
    - target: {fileID: 1324394097021378051, guid: 031db1bd1325ece439744f33bc9e593c,
        type: 3}
      propertyPath: m_Pivot.x
      value: 0.5
      objectReference: {fileID: 0}
    - target: {fileID: 1324394097021378051, guid: 031db1bd1325ece439744f33bc9e593c,
        type: 3}
      propertyPath: m_Pivot.y
      value: 0.5
      objectReference: {fileID: 0}
    - target: {fileID: 6217853066582341651, guid: 031db1bd1325ece439744f33bc9e593c,
        type: 3}
      propertyPath: m_SizeDelta.x
      value: 100
      objectReference: {fileID: 0}
    - target: {fileID: 6217853066582341651, guid: 031db1bd1325ece439744f33bc9e593c,
        type: 3}
      propertyPath: m_SizeDelta.y
      value: 100
      objectReference: {fileID: 0}
    - target: {fileID: 2960285079666977762, guid: 031db1bd1325ece439744f33bc9e593c,
        type: 3}
      propertyPath: m_Color.r
      value: 1
      objectReference: {fileID: 0}
    - target: {fileID: 2960285079666977762, guid: 031db1bd1325ece439744f33bc9e593c,
        type: 3}
      propertyPath: m_Color.g
      value: 1
      objectReference: {fileID: 0}
    - target: {fileID: 2960285079666977762, guid: 031db1bd1325ece439744f33bc9e593c,
        type: 3}
      propertyPath: m_Color.b
      value: 1
      objectReference: {fileID: 0}
    - target: {fileID: 2106775034229671975, guid: 031db1bd1325ece439744f33bc9e593c,
        type: 3}
      propertyPath: m_SpriteState.m_PressedSprite
      value: 
      objectReference: {fileID: 21300000, guid: b48288fdab4355f4bb4c13610b413264,
        type: 3}
    - target: {fileID: 9002294983390862299, guid: 031db1bd1325ece439744f33bc9e593c,
        type: 3}
      propertyPath: m_havePropertiesChanged
      value: 0
      objectReference: {fileID: 0}
    - target: {fileID: 9002294983390862299, guid: 031db1bd1325ece439744f33bc9e593c,
        type: 3}
      propertyPath: m_isInputParsingRequired
      value: 0
      objectReference: {fileID: 0}
    - target: {fileID: 7709054870600076259, guid: 031db1bd1325ece439744f33bc9e593c,
        type: 3}
      propertyPath: m_Sprite
      value: 
      objectReference: {fileID: 21300000, guid: 8337c1064c2dcb64083f63c434efacfa,
        type: 3}
    - target: {fileID: 7709054870600076259, guid: 031db1bd1325ece439744f33bc9e593c,
        type: 3}
      propertyPath: m_Color.r
      value: 0.9056604
      objectReference: {fileID: 0}
    - target: {fileID: 7709054870600076259, guid: 031db1bd1325ece439744f33bc9e593c,
        type: 3}
      propertyPath: m_Color.g
      value: 0.9056604
      objectReference: {fileID: 0}
    - target: {fileID: 7709054870600076259, guid: 031db1bd1325ece439744f33bc9e593c,
        type: 3}
      propertyPath: m_Color.b
      value: 0.9056604
      objectReference: {fileID: 0}
    m_RemovedComponents: []
  m_SourcePrefab: {fileID: 100100000, guid: 031db1bd1325ece439744f33bc9e593c, type: 3}
